^C:\USERS\RUSNAB99\SOURCE\REPOS\INTRO116A\INTRO116A\DEBUG\SOURCE.OBJ
D:\WINDOWS KITS\10\LIB\10.0.17134.0\UM\X86\KERNEL32.LIB
D:\WINDOWS KITS\10\LIB\10.0.17134.0\UM\X86\USER32.LIB
D:\WINDOWS KITS\10\LIB\10.0.17134.0\UM\X86\GDI32.LIB
D:\WINDOWS KITS\10\LIB\10.0.17134.0\UM\X86\WINSPOOL.LIB
D:\WINDOWS KITS\10\LIB\10.0.17134.0\UM\X86\COMDLG32.LIB
D:\WINDOWS KITS\10\LIB\10.0.17134.0\UM\X86\ADVAPI32.LIB
D:\WINDOWS KITS\10\LIB\10.0.17134.0\UM\X86\SHELL32.LIB
D:\WINDOWS KITS\10\LIB\10.0.17134.0\UM\X86\OLE32.LIB
D:\WINDOWS KITS\10\LIB\10.0.17134.0\UM\X86\OLEAUT32.LIB
D:\WINDOWS KITS\10\LIB\10.0.17134.0\UM\X86\UUID.LIB
D:\WINDOWS KITS\10\LIB\10.0.17134.0\UM\X86\ODBC32.LIB
D:\WINDOWS KITS\10\LIB\10.0.17134.0\UM\X86\ODBCCP32.LIB
C:\USERS\RUSNAB99\SOURCE\REPOS\INTRO116A\INTRO116A\DEBUG\SOURCE.OBJ
C:\WINDOWS\SYSTEM32\TZRES.DLL
C:\WINDOWS\GLOBALIZATION\SORTING\SORTDEFAULT.NLS
D:\IDES\VISUALSTUDIO\VC\TOOLS\MSVC\14.14.26428\LIB\X86\MSVCPRTD.LIB
D:\IDES\VISUALSTUDIO\VC\TOOLS\MSVC\14.14.26428\LIB\X86\MSVCRTD.LIB
D:\IDES\VISUALSTUDIO\VC\TOOLS\MSVC\14.14.26428\LIB\X86\OLDNAMES.LIB
D:\IDES\VISUALSTUDIO\VC\TOOLS\MSVC\14.14.26428\LIB\X86\VCRUNTIMED.LIB
D:\WINDOWS KITS\10\LIB\10.0.17134.0\UCRT\X86\UCRTD.LIB
D:\IDES\VISUALSTUDIO\VC\TOOLS\MSVC\14.14.26428\BIN\HOSTX86\X86\VCTIP.EXE
